-r base.txt

Werkzeug[watchdog]==2.3.6 # https://github.com/pallets/werkzeug
ipdb==0.13.13  # https://github.com/gotcha/ipdb

# Testing
# ------------------------------------------------------------------------------
mypy==1.4.1  # https://github.com/python/mypy
django-stubs==4.2.2  # https://github.com/typeddjango/django-stubs
pytest==7.4.0  # https://github.com/pytest-dev/pytest
pytest-sugar==0.9.7  # https://github.com/Frozenball/pytest-sugar

# Code quality
# ------------------------------------------------------------------------------
flake8==6.0.0  # https://github.com/PyCQA/flake8
flake8-isort==6.0.0  # https://github.com/gforcada/flake8-isort
coverage==7.2.7  # https://github.com/nedbat/coveragepy
black==23.3.0  # https://github.com/psf/black
djlint==1.31.1  # https://github.com/Riverside-Healthcare/djLint
pylint-django==2.5.3  # https://github.com/PyCQA/pylint-django
pre-commit==3.3.3  # https://github.com/pre-commit/pre-commit

# Django
# ------------------------------------------------------------------------------
factory-boy==3.2.1  # https://github.com/FactoryBoy/factory_boy

django-debug-toolbar==4.1.0  # https://github.com/jazzband/django-debug-toolbar
django-extensions==3.2.3  # https://github.com/django-extensions/django-extensions
django-coverage-plugin==3.0.0  # https://github.com/nedbat/django_coverage_plugin
pytest-django==4.5.2  # https://github.com/pytest-dev/pytest-django
